How to work with Android App Logging Data
…
Then let’s take a quick look at the event types in our data.

event_types = red_data %>% 
  group_by(event_type) %>% 
  summarise(
    n = n()
  ) %>% 
  arrange(desc(n)) 
event_types

# A tibble: 24 × 2
   event_type      n
        <int>  <int>
 1          1 265852
 2          2 259400
 3         23 250128
 4         12  97268
 5         19  49802
 6         20  49470
 7         10  45779
 8         15  31582
 9         16  31535
10          7  23421
# ℹ 14 more rows
…
